%YAML 1.1
%TAG !u! tag:unity3d.com,2011:
--- !u!114 &11400000
MonoBehaviour:
  m_ObjectHideFlags: 0
  m_CorrespondingSourceObject: {fileID: 0}
  m_PrefabInstance: {fileID: 0}
  m_PrefabAsset: {fileID: 0}
  m_GameObject: {fileID: 0}
  m_Enabled: 1
  m_EditorHideFlags: 0
  m_Script: {fileID: 11500000, guid: 4289053b763d60b4c919c635c835e32e, type: 3}
  m_Name: Title
  m_EditorClassIdentifier: 
  trunkSegmentPrefab: {fileID: 4476273782830341579, guid: 1b6c51f04cd1b7c439e029b3a113579b, type: 3}
  branchSegmentPrefab: {fileID: 8766865100575245016, guid: 80204e55526cd4244b544278b7dcbae7, type: 3}
  trunkKnotPrefab: {fileID: 3195730729841651789, guid: e22830a9c0e8d9049aa4392ea52be84c, type: 3}
  branchKnotPrefab: {fileID: 7001063754639023779, guid: 686c4c6b194f43b44a7c8d17c7d43a5d, type: 3}
  leafKnotPrefab: {fileID: 7920203083138337467, guid: e6944b40a74d07a4eadc6b70ad5dd7dc, type: 3}
  fruitPrefab: {fileID: 3684088451853179650, guid: 4e44f5c1049d3d34ba848efb5317f4eb, type: 3}
  MaxTrunkOrder: 3
  FruitOrder: 6
  BranchVolume: 3
  trunkBranchChance: 0.6
  doubleFruitChance: 0.2
  trunkLength: 0.3
  branchLength: 0.4
  trunkWidth: 0.8
  branchWidth: 0.7
  trunkGrowthTime: 1
  branchGrowthTime: 0.8
  fruitGrowthTime: 3
  fruitQuality: 1
  thirst: 0
  fruitBaseValue: 20
